02_Signal_and_Noise/raw_data/Part_1/sum_signal/sum_23.csv

Record Length,Math:5000
Sample Interval,1.000000E-06
Vertical Units,V,
Vertical Scale,+5.000000E-01,
Vertical Offset,+0.000000E+00,
Horizontal Units,s
Horizontal Scale,+5.000000E-04
Model,SDS5034X
Serial Number,SDS5XHED4R0238
Software Version,4.7.0.9.8R2
Source,F1
Second,Value
-2.5000000000E-03,+6.666667E-02
-2.4990000000E-03,-1.166667E-01
-2.4980000000E-03,+8.333334E-02
-2.4970000000E-03,+0.000000E+00
-2.4960000000E-03,-1.666667E-02
-2.4950000000E-03,+3.333334E-02
-2.4940000000E-03,+0.000000E+00
-2.4930000000E-03,+1.666667E-02
-2.4920000000E-03,-1.666667E-01
-2.4910000000E-03,+5.000000E-02
-2.4900000000E-03,+0.000000E+00
-2.4890000000E-03,-6.666667E-02
-2.4880000000E-03,-5.000000E-02
-2.4870000000E-03,+3.333334E-02
-2.4860000000E-03,-1.000000E-01
-2.4850000000E-03,-3.333334E-02
-2.4840000000E-03,+6.666667E-02
-2.4830000000E-03,-6.666667E-02
-2.4820000000E-03,-1.833333E-01
-2.4810000000E-03,-1.166667E-01
-2.4800000000E-03,-2.000000E-01
-2.4790000000E-03,-5.000000E-02
-2.4780000000E-03,-2.166667E-01
-2.4770000000E-03,-2.000000E-01
-2.4760000000E-03,-1.333333E-01
-2.4750000000E-03,-1.333333E-01
-2.4740000000E-03,-1.666667E-01
-2.4730000000E-03,-1.666667E-01
-2.4720000000E-03,-2.166667E-01
-2.4710000000E-03,-1.666667E-01
-2.4700000000E-03,-2.333333E-01
-2.4690000000E-03,-2.000000E-01
-2.4680000000E-03,-3.166667E-01
-2.4670000000E-03,-2.000000E-01
-2.4660000000E-03,-3.166667E-01
-2.4650000000E-03,-2.666667E-01
-2.4640000000E-03,-1.500000E-01
-2.4630000000E-03,-2.166667E-01
-2.4620000000E-03,-2.666667E-01
-2.4610000000E-03,-3.333333E-01
-2.4600000000E-03,-2.000000E-01
-2.4590000000E-03,-2.000000E-01
-2.4580000000E-03,-1.833333E-01
-2.4570000000E-03,-3.000000E-01
-2.4560000000E-03,-1.500000E-01
-2.4550000000E-03,-2.500000E-01
-2.4540000000E-03,-2.333333E-01
-2.4530000000E-03,-2.166667E-01
-2.4520000000E-03,-4.500000E-01
-2.4510000000E-03,-3.166667E-01
-2.4500000000E-03,-2.666667E-01
-2.4490000000E-03,-2.833334E-01
-2.4480000000E-03,-3.666667E-01
-2.4470000000E-03,-4.166667E-01
-2.4460000000E-03,-2.833334E-01
-2.4450000000E-03,-2.833334E-01
-2.4440000000E-03,-4.000000E-01
-2.4430000000E-03,-3.500000E-01
-2.4420000000E-03,-3.166667E-01
-2.4410000000E-03,-3.666667E-01
-2.4400000000E-03,-3.166667E-01
-2.4390000000E-03,-4.500000E-01
-2.4380000000E-03,-3.166667E-01
-2.4370000000E-03,-4.000000E-01
-2.4360000000E-03,-2.500000E-01
-2.4350000000E-03,-2.500000E-01
-2.4340000000E-03,-3.666667E-01
-2.4330000000E-03,-3.666667E-01
-2.4320000000E-03,-4.166667E-01
-2.4310000000E-03,-5.166667E-01
-2.4300000000E-03,-4.166667E-01
-2.4290000000E-03,-4.833333E-01
-2.4280000000E-03,-6.166667E-01
-2.4270000000E-03,-4.000000E-01
-2.4260000000E-03,-4.833333E-01
-2.4250000000E-03,-4.500000E-01
-2.4240000000E-03,-4.666667E-01
-2.4230000000E-03,-5.500000E-01
-2.4220000000E-03,-5.166667E-01
-2.4210000000E-03,-4.333334E-01
-2.4200000000E-03,-5.000000E-01
-2.4190000000E-03,-4.666667E-01
-2.4180000000E-03,-5.333334E-01
-2.4170000000E-03,-5.666667E-01
-2.4160000000E-03,-5.500000E-01
-2.4150000000E-03,-5.333334E-01
-2.4140000000E-03,-6.500000E-01
-2.4130000000E-03,-5.833334E-01
-2.4120000000E-03,-4.666667E-01
-2.4110000000E-03,-4.500000E-01
-2.4100000000E-03,-5.833334E-01
-2.4090000000E-03,-6.333334E-01
-2.4080000000E-03,-5.166667E-01
-2.4070000000E-03,-5.500000E-01
-2.4060000000E-03,-6.666667E-01
-2.4050000000E-03,-5.000000E-01
-2.4040000000E-03,-6.500000E-01
-2.4030000000E-03,-5.666667E-01
-2.4020000000E-03,-6.000000E-01
-2.4010000000E-03,-5.500000E-01
-2.4000000000E-03,-6.500000E-01
-2.3990000000E-03,-6.333334E-01
-2.3980000000E-03,-5.500000E-01
-2.3970000000E-03,-6.000000E-01
-2.3960000000E-03,-5.000000E-01
-2.3950000000E-03,-5.666667E-01
-2.3940000000E-03,-7.000000E-01
-2.3930000000E-03,-7.666667E-01
-2.3920000000E-03,-6.500000E-01
-2.3910000000E-03,-7.000000E-01
-2.3900000000E-03,-6.000000E-01
-2.3890000000E-03,-6.333334E-01
-2.3880000000E-03,-5.666667E-01
-2.3870000000E-03,-6.166667E-01
-2.3860000000E-03,-6.000000E-01
-2.3850000000E-03,-6.500000E-01
-2.3840000000E-03,-5.166667E-01
-2.3830000000E-03,-6.500000E-01
-2.3820000000E-03,-7.500001E-01
-2.3810000000E-03,-7.166667E-01
-2.3800000000E-03,-6.000000E-01
-2.3790000000E-03,-6.833334E-01
-2.3780000000E-03,-5.833334E-01
-2.3770000000E-03,-7.500001E-01
-2.3760000000E-03,-7.833334E-01
-2.3750000000E-03,-7.333333E-01
-2.3740000000E-03,-6.666667E-01
-2.3730000000E-03,-7.333333E-01
-2.3720000000E-03,-8.000001E-01
-2.3710000000E-03,-7.000000E-01
-2.3700000000E-03,-7.166667E-01
-2.3690000000E-03,-8.500000E-01
-2.3680000000E-03,-8.333334E-01
-2.3670000000E-03,-7.000000E-01
-2.3660000000E-03,-7.833334E-01
-2.3650000000E-03,-6.166667E-01
-2.3640000000E-03,-6.666667E-01
-2.3630000000E-03,-8.166667E-01
-2.3620000000E-03,-8.000001E-01
-2.3610000000E-03,-8.500000E-01
-2.3600000000E-03,-7.500001E-01
-2.3590000000E-03,-7.000000E-01
-2.3580000000E-03,-9.333334E-01
-2.3570000000E-03,-7.833334E-01
-2.3560000000E-03,-8.500000E-01
-2.3550000000E-03,-7.666667E-01
-2.3540000000E-03,-8.333334E-01
-2.3530000000E-03,-7.166667E-01
-2.3520000000E-03,-7.666667E-01
-2.3510000000E-03,-7.500001E-01
-2.3500000000E-03,-9.166667E-01
-2.3490000000E-03,-8.166667E-01
-2.3480000000E-03,-8.666667E-01
-2.3470000000E-03,-9.333334E-01
-2.3460000000E-03,-7.500001E-01
-2.3450000000E-03,-7.166667E-01
-2.3440000000E-03,-7.333333E-01
-2.3430000000E-03,-8.333334E-01
-2.3420000000E-03,-7.500001E-01
-2.3410000000E-03,-8.000001E-01
-2.3400000000E-03,-8.666667E-01
-2.3390000000E-03,-8.666667E-01
-2.3380000000E-03,-9.166667E-01
-2.3370000000E-03,-8.666667E-01
-2.3360000000E-03,-8.833334E-01
-2.3350000000E-03,-9.500000E-01
-2.3340000000E-03,-8.000001E-01
-2.3330000000E-03,-9.000000E-01
-2.3320000000E-03,-9.333334E-01
-2.3310000000E-03,-8.333334E-01
-2.3300000000E-03,-8.166667E-01
-2.3290000000E-03,-1.016667E+00
-2.3280000000E-03,-8.666667E-01
-2.3270000000E-03,-9.833334E-01
-2.3260000000E-03,-7.833334E-01
-2.3250000000E-03,-9.333334E-01
-2.3240000000E-03,-8.833334E-01
-2.3230000000E-03,-8.833334E-01
-2.3220000000E-03,-8.333334E-01
-2.3210000000E-03,-8.666667E-01
-2.3200000000E-03,-8.666667E-01
-2.3190000000E-03,-1.000000E+00
-2.3180000000E-03,-9.666667E-01
-2.3170000000E-03,-9.666667E-01
-2.3160000000E-03,-9.166667E-01
-2.3150000000E-03,-9.000000E-01
-2.3140000000E-03,-9.000000E-01
-2.3130000000E-03,-8.833334E-01
-2.3120000000E-03,-8.666667E-01
-2.3110000000E-03,-8.166667E-01
-2.3100000000E-03,-1.066667E+00
-2.3090000000E-03,-9.500000E-01
-2.3080000000E-03,-9.333334E-01
-2.3070000000E-03,-1.000000E+00
-2.3060000000E-03,-8.833334E-01
-2.3050000000E-03,-9.333334E-01
-2.3040000000E-03,-9.166667E-01
-2.3030000000E-03,-1.000000E+00
-2.3020000000E-03,-1.100000E+00
-2.3010000000E-03,-9.166667E-01
-2.3000000000E-03,-1.050000E+00
-2.2990000000E-03,-9.333334E-01
-2.2980000000E-03,-1.016667E+00
-2.2970000000E-03,-1.050000E+00
-2.2960000000E-03,-1.183333E+00
-2.2950000000E-03,-1.000000E+00
-2.2940000000E-03,-9.666667E-01
-2.2930000000E-03,-9.333334E-01
-2.2920000000E-03,-9.333334E-01
-2.2910000000E-03,-1.033333E+00
-2.2900000000E-03,-9.833334E-01
-2.2890000000E-03,-1.000000E+00
-2.2880000000E-03,-1.083333E+00
-2.2870000000E-03,-1.033333E+00
-2.2860000000E-03,-1.016667E+00
-2.2850000000E-03,-9.833334E-01
-2.2840000000E-03,-1.050000E+00
-2.2830000000E-03,-9.500000E-01
-2.2820000000E-03,-9.833334E-01
-2.2810000000E-03,-8.500000E-01
-2.2800000000E-03,-9.500000E-01
-2.2790000000E-03,-1.016667E+00
-2.2780000000E-03,-1.133333E+00
-2.2770000000E-03,-9.666667E-01
-2.2760000000E-03,-9.833334E-01
-2.2750000000E-03,-1.000000E+00
-2.2740000000E-03,-9.833334E-01
-2.2730000000E-03,-9.166667E-01
-2.2720000000E-03,-9.833334E-01
-2.2710000000E-03,-1.000000E+00
-2.2700000000E-03,-9.000000E-01
-2.2690000000E-03,-1.033333E+00
-2.2680000000E-03,-9.833334E-01
-2.2670000000E-03,-1.033333E+00
-2.2660000000E-03,-1.083333E+00
-2.2650000000E-03,-1.066667E+00
-2.2640000000E-03,-1.000000E+00
-2.2630000000E-03,-1.033333E+00
-2.2620000000E-03,-9.333334E-01
-2.2610000000E-03,-1.016667E+00
-2.2600000000E-03,-9.666667E-01
-2.2590000000E-03,-1.033333E+00
-2.2580000000E-03,-1.166667E+00
-2.2570000000E-03,-1.116667E+00
-2.2560000000E-03,-9.500000E-01
-2.2550000000E-03,-1.150000E+00
-2.2540000000E-03,-1.000000E+00
-2.2530000000E-03,-1.050000E+00
-2.2520000000E-03,-1.083333E+00
-2.2510000000E-03,-9.666667E-01
-2.2500000000E-03,-9.833334E-01
-2.2490000000E-03,-1.033333E+00
-2.2480000000E-03,-1.050000E+00
-2.2470000000E-03,-1.050000E+00
-2.2460000000E-03,-1.000000E+00
-2.2450000000E-03,-9.833334E-01
-2.2440000000E-03,-1.033333E+00
-2.2430000000E-03,-1.000000E+00
-2.2420000000E-03,-1.016667E+00
-2.2410000000E-03,-1.066667E+00
-2.2400000000E-03,-9.500000E-01
-2.2390000000E-03,-1.083333E+00
-2.2380000000E-03,-1.100000E+00
-2.2370000000E-03,-1.050000E+00
-2.2360000000E-03,-9.000000E-01
-2.2350000000E-03,-1.116667E+00
-2.2340000000E-03,-1.150000E+00
-2.2330000000E-03,-1.000000E+00
-2.2320000000E-03,-1.016667E+00
-2.2310000000E-03,-9.666667E-01
-2.2300000000E-03,-1.116667E+00
-2.2290000000E-03,-1.116667E+00
-2.2280000000E-03,-1.033333E+00
-2.2270000000E-03,-1.050000E+00
-2.2260000000E-03,-1.100000E+00
-2.2250000000E-03,-1.000000E+00
-2.2240000000E-03,-1.050000E+00
-2.2230000000E-03,-9.500000E-01
-2.2220000000E-03,-1.066667E+00
-2.2210000000E-03,-1.083333E+00
-2.2200000000E-03,-1.133333E+00
-2.2190000000E-03,-1.100000E+00
-2.2180000000E-03,-9.500000E-01
-2.2170000000E-03,-1.033333E+00
-2.2160000000E-03,-1.066667E+00
-2.2150000000E-03,-9.500000E-01
-2.2140000000E-03,-1.150000E+00
-2.2130000000E-03,-9.333334E-01
-2.2120000000E-03,-1.000000E+00
-2.2110000000E-03,-1.016667E+00
-2.2100000000E-03,-1.066667E+00
-2.2090000000E-03,-9.500000E-01
-2.2080000000E-03,-1.066667E+00
-2.2070000000E-03,-8.666667E-01
-2.2060000000E-03,-1.050000E+00
-2.2050000000E-03,-1.033333E+00
-2.2040000000E-03,-9.666667E-01
-2.2030000000E-03,-1.016667E+00
-2.2020000000E-03,-1.150000E+00
-2.2010000000E-03,-1.083333E+00
-2.2000000000E-03,-1.050000E+00
-2.1990000000E-03,-9.166667E-01
-2.1980000000E-03,-1.033333E+00
-2.1970000000E-03,-9.333334E-01
-2.1960000000E-03,-1.016667E+00
-2.1950000000E-03,-1.016667E+00
-2.1940000000E-03,-9.000000E-01
-2.1930000000E-03,-1.133333E+00
-2.1920000000E-03,-9.666667E-01
-2.1910000000E-03,-9.000000E-01
-2.1900000000E-03,-9.500000E-01
-2.1890000000E-03,-9.833334E-01
-2.1880000000E-03,-9.833334E-01
-2.1870000000E-03,-9.000000E-01
-2.1860000000E-03,-9.333334E-01
-2.1850000000E-03,-9.333334E-01
-2.1840000000E-03,-1.083333E+00
-2.1830000000E-03,-1.016667E+00
-2.1820000000E-03,-1.033333E+00
-2.1810000000E-03,-1.033333E+00
-2.1800000000E-03,-9.833334E-01
-2.1790000000E-03,-9.833334E-01
-2.1780000000E-03,-9.000000E-01
-2.1770000000E-03,-9.166667E-01
-2.1760000000E-03,-9.833334E-01
-2.1750000000E-03,-1.050000E+00
-2.1740000000E-03,-9.500000E-01
-2.1730000000E-03,-1.000000E+00
-2.1720000000E-03,-9.333334E-01
-2.1710000000E-03,-9.166667E-01
-2.1700000000E-03,-9.500000E-01
-2.1690000000E-03,-9.500000E-01
-2.1680000000E-03,-9.166667E-01
-2.1670000000E-03,-9.166667E-01
-2.1660000000E-03,-9.500000E-01
-2.1650000000E-03,-9.000000E-01
-2.1640000000E-03,-8.666667E-01
-2.1630000000E-03,-8.000001E-01
-2.1620000000E-03,-8.666667E-01
-2.1610000000E-03,-9.666667E-01
-2.1600000000E-03,-8.833334E-01
-2.1590000000E-03,-8.333334E-01
-2.1580000000E-03,-8.833334E-01
-2.1570000000E-03,-9.333334E-01
-2.1560000000E-03,-8.333334E-01
-2.1550000000E-03,-8.666667E-01
-2.1540000000E-03,-8.166667E-01
-2.1530000000E-03,-9.833334E-01
-2.1520000000E-03,-8.500000E-01
-2.1510000000E-03,-8.166667E-01
-2.1500000000E-03,-7.500001E-01
-2.1490000000E-03,-8.333334E-01
-2.1480000000E-03,-9.166667E-01
-2.1470000000E-03,-9.333334E-01
-2.1460000000E-03,-8.500000E-01
-2.1450000000E-03,-8.166667E-01
-2.1440000000E-03,-9.333334E-01
-2.1430000000E-03,-9.000000E-01
-2.1420000000E-03,-7.500001E-01
-2.1410000000E-03,-9.000000E-01
-2.1400000000E-03,-8.500000E-01
-2.1390000000E-03,-8.666667E-01
-2.1380000000E-03,-8.666667E-01
-2.1370000000E-03,-8.166667E-01
-2.1360000000E-03,-7.500001E-01
-2.1350000000E-03,-7.666667E-01
-2.1340000000E-03,-8.666667E-01
-2.1330000000E-03,-6.833334E-01
-2.1320000000E-03,-7.000000E-01
-2.1310000000E-03,-7.833334E-01
-2.1300000000E-03,-7.666667E-01
-2.1290000000E-03,-7.833334E-01
-2.1280000000E-03,-7.333333E-01
-2.1270000000E-03,-8.500000E-01
-2.1260000000E-03,-7.000000E-01
-2.1250000000E-03,-9.333334E-01
-2.1240000000E-03,-7.500001E-01
-2.1230000000E-03,-7.166667E-01
-2.1220000000E-03,-7.333333E-01
-2.1210000000E-03,-8.166667E-01
-2.1200000000E-03,-7.333333E-01
-2.1190000000E-03,-7.166667E-01
-2.1180000000E-03,-6.833334E-01
-2.1170000000E-03,-7.000000E-01
-2.1160000000E-03,-8.333334E-01
-2.1150000000E-03,-6.833334E-01
-2.1140000000E-03,-8.166667E-01
-2.1130000000E-03,-6.666667E-01
-2.1120000000E-03,-7.833334E-01
-2.1110000000E-03,-7.000000E-01
-2.1100000000E-03,-8.333334E-01
-2.1090000000E-03,-6.833334E-01
-2.1080000000E-03,-6.500000E-01
-2.1070000000E-03,-7.333333E-01
-2.1060000000E-03,-6.666667E-01
-2.1050000000E-03,-6.666667E-01
-2.1040000000E-03,-5.833334E-01
-2.1030000000E-03,-7.000000E-01
-2.1020000000E-03,-6.166667E-01
-2.1010000000E-03,-6.500000E-01
-2.1000000000E-03,-7.500001E-01
-2.0990000000E-03,-5.833334E-01
-2.0980000000E-03,-7.333333E-01
-2.0970000000E-03,-6.000000E-01
-2.0960000000E-03,-7.500001E-01
-2.0950000000E-03,-6.500000E-01
-2.0940000000E-03,-6.166667E-01
-2.0930000000E-03,-5.666667E-01
-2.0920000000E-03,-6.833334E-01
-2.0910000000E-03,-6.666667E-01
-2.0900000000E-03,-6.000000E-01
-2.0890000000E-03,-4.833333E-01
-2.0880000000E-03,-6.166667E-01
-2.0870000000E-03,-5.166667E-01
-2.0860000000E-03,-6.500000E-01
-2.0850000000E-03,-5.500000E-01
-2.0840000000E-03,-5.500000E-01
-2.0830000000E-03,-6.500000E-01
-2.0820000000E-03,-5.666667E-01
-2.0810000000E-03,-6.333334E-01
-2.0800000000E-03,-5.333334E-01
-2.0790000000E-03,-5.500000E-01
-2.0780000000E-03,-4.333334E-01
-2.0770000000E-03,-4.833333E-01
-2.0760000000E-03,-6.833334E-01
-2.0750000000E-03,-5.500000E-01
-2.0740000000E-03,-6.333334E-01
-2.0730000000E-03,-6.333334E-01
-2.0720000000E-03,-5.000000E-01
-2.0710000000E-03,-5.333334E-01
-2.0700000000E-03,-5.500000E-01
-2.0690000000E-03,-4.166667E-01
-2.0680000000E-03,-4.666667E-01
-2.0670000000E-03,-5.833334E-01
-2.0660000000E-03,-4.833333E-01
-2.0650000000E-03,-5.333334E-01
-2.0640000000E-03,-4.833333E-01
-2.0630000000E-03,-5.000000E-01
-2.0620000000E-03,-3.166667E-01
-2.0610000000E-03,-4.666667E-01
-2.0600000000E-03,-4.166667E-01
-2.0590000000E-03,-4.000000E-01
-2.0580000000E-03,-4.333334E-01
-2.0570000000E-03,-5.000000E-01
-2.0560000000E-03,-3.500000E-01
-2.0550000000E-03,-4.000000E-01
-2.0540000000E-03,-4.833333E-01
-2.0530000000E-03,-3.500000E-01
-2.0520000000E-03,-5.000000E-01
-2.0510000000E-03,-5.333334E-01
-2.0500000000E-03,-4.000000E-01
-2.0490000000E-03,-4.666667E-01
-2.0480000000E-03,-3.500000E-01
-2.0470000000E-03,-2.333333E-01
-2.0460000000E-03,-4.000000E-01
-2.0450000000E-03,-3.166667E-01
-2.0440000000E-03,-3.500000E-01
-2.0430000000E-03,-3.166667E-01
-2.0420000000E-03,-2.833334E-01
-2.0410000000E-03,-4.166667E-01
-2.0400000000E-03,-4.000000E-01
-2.0390000000E-03,-2.166667E-01
-2.0380000000E-03,-3.666667E-01
-2.0370000000E-03,-4.000000E-01
-2.0360000000E-03,-3.500000E-01
-2.0350000000E-03,-3.000000E-01
-2.0340000000E-03,-3.500000E-01
-2.0330000000E-03,-3.500000E-01
-2.0320000000E-03,-2.666667E-01
-2.0310000000E-03,-2.500000E-01
-2.0300000000E-03,-2.000000E-01
-2.0290000000E-03,-4.500000E-01
-2.0280000000E-03,-2.833334E-01
-2.0270000000E-03,-3.333333E-01
-2.0260000000E-03,-2.833334E-01
-2.0250000000E-03,-1.000000E-01
-2.0240000000E-03,-3.000000E-01
-2.0230000000E-03,-2.833334E-01
-2.0220000000E-03,-2.000000E-01
-2.0210000000E-03,-1.833333E-01
-2.0200000000E-03,-1.500000E-01
-2.0190000000E-03,-2.166667E-01
-2.0180000000E-03,-1.833333E-01
-2.0170000000E-03,-1.833333E-01
-2.0160000000E-03,-2.166667E-01
-2.0150000000E-03,-1.500000E-01
-2.0140000000E-03,-1.333333E-01
-2.0130000000E-03,-1.500000E-01
-2.0120000000E-03,-1.500000E-01
-2.0110000000E-03,-1.833333E-01
-2.0100000000E-03,-1.666667E-01
-2.0090000000E-03,-1.666667E-01
-2.0080000000E-03,-1.000000E-01
-2.0070000000E-03,-1.000000E-01
-2.0060000000E-03,-1.833333E-01
-2.0050000000E-03,-1.000000E-01
-2.0040000000E-03,-6.666667E-02
-2.0030000000E-03,-1.166667E-01
-2.0020000000E-03,-1.666667E-02
-2.0010000000E-03,-1.500000E-01
-2.0000000000E-03,-5.000000E-02
-1.9990000000E-03,-1.833333E-01
-1.9980000000E-03,-1.166667E-01
-1.9970000000E-03,-1.000000E-01
-1.9960000000E-03,+1.666667E-02
-1.9950000000E-03,-1.500000E-01
-1.9940000000E-03,-5.000000E-02
-1.9930000000E-03,-3.333334E-02
-1.9920000000E-03,-1.666667E-02
-1.9910000000E-03,+6.666667E-02
-1.9900000000E-03,+0.000000E+00
-1.9890000000E-03,-3.333334E-02
-1.9880000000E-03,+3.333334E-02
-1.9870000000E-03,+0.000000E+00
-1.9860000000E-03,-5.000000E-02
-1.9850000000E-03,-3.333334E-02
-1.9840000000E-03,-8.333334E-02
-1.9830000000E-03,+8.333334E-02
-1.9820000000E-03,+1.333333E-01
-1.9810000000E-03,+6.666667E-02
-1.9800000000E-03,+1.666667E-02
-1.9790000000E-03,+0.000000E+00
-1.9780000000E-03,-3.333334E-02
-1.9770000000E-03,+1.000000E-01
-1.9760000000E-03,+1.166667E-01
-1.9750000000E-03,+1.000000E-01
-1.9740000000E-03,+5.000000E-02
-1.9730000000E-03,+1.333333E-01
-1.9720000000E-03,+1.000000E-01
-1.9710000000E-03,-1.666667E-02
-1.9700000000E-03,+1.833333E-01
-1.9690000000E-03,+1.666667E-01
-1.9680000000E-03,+1.500000E-01
-1.9670000000E-03,+1.166667E-01
-1.9660000000E-03,+1.166667E-01
-1.9650000000E-03,+8.333334E-02
-1.9640000000E-03,+2.666667E-01
-1.9630000000E-03,+1.333333E-01
-1.9620000000E-03,+2.333333E-01
-1.9610000000E-03,+2.000000E-01
-1.9600000000E-03,+1.000000E-01
-1.9590000000E-03,+1.000000E-01
-1.9580000000E-03,+2.666667E-01
-1.9570000000E-03,+1.166667E-01
-1.9560000000E-03,+1.833333E-01
-1.9550000000E-03,+1.833333E-01
-1.9540000000E-03,+1.833333E-01
-1.9530000000E-03,+2.000000E-01
-1.9520000000E-03,+1.333333E-01
-1.9510000000E-03,+2.500000E-01
-1.9500000000E-03,+2.333333E-01
-1.9490000000E-03,+2.166667E-01
-1.9480000000E-03,+2.000000E-01
-1.9470000000E-03,+2.666667E-01
-1.9460000000E-03,+2.500000E-01
-1.9450000000E-03,+3.666667E-01
-1.9440000000E-03,+3.333333E-01
-1.9430000000E-03,+2.666667E-01
-1.9420000000E-03,+3.500000E-01
-1.9410000000E-03,+1.833333E-01
-1.9400000000E-03,+2.166667E-01
-1.9390000000E-03,+3.333333E-01
-1.9380000000E-03,+3.666667E-01
-1.9370000000E-03,+3.500000E-01
-1.9360000000E-03,+3.666667E-01
-1.9350000000E-03,+4.500000E-01
-1.9340000000E-03,+3.666667E-01
-1.9330000000E-03,+2.166667E-01
-1.9320000000E-03,+1.833333E-01
-1.9310000000E-03,+4.166667E-01
-1.9300000000E-03,+2.333333E-01
-1.9290000000E-03,+3.666667E-01
-1.9280000000E-03,+2.666667E-01
-1.9270000000E-03,+4.833333E-01
-1.9260000000E-03,+4.333334E-01
-1.9250000000E-03,+3.000000E-01
-1.9240000000E-03,+4.500000E-01
-1.9230000000E-03,+3.500000E-01
-1.9220000000E-03,+4.000000E-01
-1.9210000000E-03,+3.166667E-01
-1.9200000000E-03,+5.166667E-01
-1.9190000000E-03,+4.166667E-01
-1.9180000000E-03,+4.666667E-01
-1.9170000000E-03,+6.000000E-01
-1.9160000000E-03,+5.000000E-01
-1.9150000000E-03,+4.166667E-01
-1.9140000000E-03,+4.666667E-01
-1.9130000000E-03,+5.000000E-01
-1.9120000000E-03,+4.333334E-01
-1.9110000000E-03,+3.833334E-01
-1.9100000000E-03,+5.500000E-01
-1.9090000000E-03,+3.166667E-01
-1.9080000000E-03,+4.333334E-01
-1.9070000000E-03,+5.333334E-01
-1.9060000000E-03,+5.000000E-01
-1.9050000000E-03,+4.166667E-01
-1.9040000000E-03,+4.500000E-01
-1.9030000000E-03,+5.000000E-01
-1.9020000000E-03,+4.333334E-01
-1.9010000000E-03,+5.333334E-01
-1.9000000000E-03,+5.000000E-01
-1.8990000000E-03,+6.333334E-01
-1.8980000000E-03,+3.833334E-01
-1.8970000000E-03,+5.000000E-01
-1.8960000000E-03,+4.833333E-01
-1.8950000000E-03,+4.000000E-01
-1.8940000000E-03,+6.166667E-01
-1.8930000000E-03,+5.166667E-01
-1.8920000000E-03,+5.166667E-01
-1.8910000000E-03,+5.166667E-01
-1.8900000000E-03,+6.000000E-01
-1.8890000000E-03,+6.000000E-01
-1.8880000000E-03,+5.833334E-01
-1.8870000000E-03,+5.166667E-01
-1.8860000000E-03,+6.666667E-01
-1.8850000000E-03,+6.333334E-01
